create_time,points,remark,update_time,agent_id,appointment_id
2020-03-13 22:59:18,20,,2020-03-13 22:59:18,1,1
2020-03-14 22:59:18,20,,2020-03-14 22:59:18,1,2
2020-03-15 22:59:18,20,,2020-03-15 22:59:18,1,3
2020-03-16 22:59:18,20,,2020-03-16 22:59:18,1,4
2020-03-17 22:59:18,20,,2020-03-17 22:59:18,1,5
2020-03-18 22:59:18,20,,2020-03-18 22:59:18,1,6
2020-03-19 22:59:18,20,,2020-03-19 22:59:18,1,7
2020-03-20 22:59:18,20,,2020-03-20 22:59:18,1,8
2020-03-21 22:59:18,20,,2020-03-21 22:59:18,1,9
2020-03-22 22:59:18,20,,2020-03-22 22:59:18,1,10
2020-03-23 22:59:18,20,,2020-03-23 22:59:18,1,11
2020-03-24 22:59:18,20,,2020-03-24 22:59:18,1,12
2020-03-25 22:59:18,20,,2020-03-25 22:59:18,1,13
2020-03-26 22:59:18,20,,2020-03-26 22:59:18,1,14
2020-03-27 22:59:18,20,,2020-03-27 22:59:18,1,15
2020-03-28 22:59:18,20,,2020-03-28 22:59:18,1,16
2020-03-29 22:59:18,20,,2020-03-29 22:59:18,1,17
2020-03-30 22:59:18,20,,2020-03-30 22:59:18,1,18
2020-03-31 22:59:18,20,,2020-03-31 22:59:18,1,19
2020-04-01 22:59:18,20,,2020-04-01 22:59:18,1,20
2020-05-10 22:59:18,20,,2020-05-10 22:59:18,2,21
2020-05-10 22:59:18,20,,2020-05-10 22:59:18,4,22
2020-05-11 22:59:18,20,,2020-05-11 22:59:18,2,23
2020-05-11 22:59:18,20,,2020-05-11 22:59:18,4,24
2020-05-12 22:59:18,20,,2020-05-12 22:59:18,2,25
2020-05-12 22:59:18,20,,2020-05-12 22:59:18,4,26
2020-05-13 22:59:18,20,,2020-05-13 22:59:18,2,27
2020-05-13 22:59:18,20,,2020-05-13 22:59:18,4,28
2020-05-14 22:59:18,20,,2020-05-14 22:59:18,2,29
2020-05-14 22:59:18,20,,2020-05-14 22:59:18,4,30
2020-05-14 22:59:18,20,,2020-05-14 22:59:18,4,31
2020-05-15 22:59:18,20,,2020-05-15 22:59:18,2,32
2020-05-15 22:59:18,20,,2020-05-15 22:59:18,4,33
2020-05-15 22:59:18,20,,2020-05-15 22:59:18,4,34
2020-05-16 22:59:18,20,,2020-05-16 22:59:18,2,35
2020-05-16 22:59:18,20,,2020-05-16 22:59:18,4,36
2020-05-16 22:59:18,20,,2020-05-16 22:59:18,4,37
2020-05-17 22:59:18,20,,2020-05-17 22:59:18,2,38
2020-05-17 22:59:18,20,,2020-05-17 22:59:18,4,39
2020-05-17 22:59:18,20,,2020-05-17 22:59:18,4,40
2020-05-18 22:59:18,20,,2020-05-18 22:59:18,4,41
2020-05-19 22:59:18,20,,2020-05-19 22:59:18,4,42
2020-05-20 22:59:18,20,,2020-05-20 22:59:18,4,43
2020-05-21 22:59:18,20,,2020-05-21 22:59:18,4,44
2020-05-22 22:59:18,20,,2020-05-22 22:59:18,4,45
2020-05-23 22:59:18,20,,2020-05-23 22:59:18,4,46
2020-05-24 22:59:18,20,,2020-05-24 22:59:18,5,47
2020-05-25 22:59:18,20,,2020-05-25 22:59:18,5,48
2020-05-26 22:59:18,20,,2020-05-26 22:59:18,5,49
2020-05-27 22:59:18,20,,2020-05-27 22:59:18,5,50
2020-05-28 22:59:18,20,,2020-05-28 22:59:18,5,51
2020-05-29 22:59:18,20,,2020-05-29 22:59:18,5,52
2020-05-30 22:59:18,20,,2020-05-30 22:59:18,5,53
2020-05-31 22:59:18,20,,2020-05-31 22:59:18,5,54
2020-06-01 22:59:18,20,,2020-06-01 22:59:18,5,55
2020-06-04 22:59:18,20,,2020-06-04 22:59:18,3,56
2020-06-05 22:59:18,20,,2020-06-05 22:59:18,3,57
2020-06-06 22:59:18,20,,2020-06-06 22:59:18,3,58
2020-06-07 22:59:18,20,,2020-06-07 22:59:18,3,59
2020-06-08 22:59:18,20,,2020-06-08 22:59:18,3,60
2020-06-09 22:59:18,20,,2020-06-09 22:59:18,3,61
2020-06-10 22:59:18,20,,2020-06-10 22:59:18,3,62
2020-06-11 22:59:18,20,,2020-06-11 22:59:18,3,63
2020-06-12 22:59:18,20,,2020-06-12 22:59:18,3,64
2020-06-13 22:59:18,20,,2020-06-13 22:59:18,3,65
2020-07-07 22:59:18,20,,2020-07-07 22:59:18,4,66
2020-07-08 22:59:18,20,,2020-07-08 22:59:18,4,67
2020-07-09 22:59:18,20,,2020-07-09 22:59:18,4,68
2020-07-10 22:59:18,20,,2020-07-10 22:59:18,4,69
2020-07-11 22:59:18,20,,2020-07-11 22:59:18,4,70
2020-07-12 22:59:18,20,,2020-07-12 22:59:18,4,71
2020-07-13 22:59:18,20,,2020-07-13 22:59:18,4,72
2020-08-24 22:59:18,20,,2020-08-24 22:59:18,6,73
2020-08-25 22:59:18,20,,2020-08-25 22:59:18,6,74
2020-08-26 22:59:18,20,,2020-08-26 22:59:18,6,75
2020-08-27 22:59:18,20,,2020-08-27 22:59:18,6,76
2020-08-28 22:59:18,20,,2020-08-28 22:59:18,6,77
2020-08-29 22:59:18,20,,2020-08-29 22:59:18,6,78
2020-08-30 22:59:18,20,,2020-08-30 22:59:18,6,79
2020-08-31 22:59:18,20,,2020-08-31 22:59:18,6,80
2020-09-01 22:59:18,20,,2020-09-01 22:59:18,6,81
2020-09-02 22:59:18,20,,2020-09-02 22:59:18,6,82
2020-09-03 22:59:18,20,,2020-09-03 22:59:18,7,83
2020-09-04 22:59:18,20,,2020-09-04 22:59:18,7,84
2020-09-05 22:59:18,20,,2020-09-05 22:59:18,7,85
2020-09-06 22:59:18,20,,2020-09-06 22:59:18,8,86
2020-09-07 22:59:18,20,,2020-09-07 22:59:18,8,87
2020-09-08 22:59:18,20,,2020-09-08 22:59:18,8,88
2020-09-09 22:59:18,20,,2020-09-09 22:59:18,9,89
2020-09-10 22:59:18,20,,2020-09-10 22:59:18,9,90
2020-09-11 22:59:18,20,,2020-09-11 22:59:18,9,91
2021-01-08 22:59:18,40,,2021-01-08 22:59:18,12,92
2021-01-09 22:59:18,40,,2021-01-09 22:59:18,12,93
2021-01-10 22:59:18,40,,2021-01-10 22:59:18,13,94
2021-01-11 22:59:18,40,,2021-01-11 22:59:18,14,95
2021-01-12 22:59:18,40,,2021-01-12 22:59:18,14,96
2021-01-13 22:59:18,40,,2021-01-13 22:59:18,14,97
2021-01-14 22:59:18,40,,2021-01-14 22:59:18,14,98
2021-01-15 22:59:18,40,,2021-01-15 22:59:18,14,99
2021-01-16 22:59:18,40,,2021-01-16 22:59:18,15,100
2021-01-17 22:59:18,40,,2021-01-17 22:59:18,15,101
2021-01-18 22:59:18,40,,2021-01-18 22:59:18,15,102
2021-01-19 22:59:18,40,,2021-01-19 22:59:18,15,103
2021-01-20 22:59:18,40,,2021-01-20 22:59:18,15,104
2021-01-21 22:59:18,40,,2021-01-21 22:59:18,15,105
2021-01-22 22:59:18,40,,2021-01-22 22:59:18,15,106
2021-01-23 22:59:18,40,,2021-01-23 22:59:18,15,107
2021-01-24 22:59:18,40,,2021-01-24 22:59:18,15,108
2021-01-25 22:59:18,40,,2021-01-25 22:59:18,15,109
2021-01-26 22:59:18,40,,2021-01-26 22:59:18,15,110
2021-03-12 22:59:18,20,,2021-03-12 22:59:18,9,111
2021-03-13 22:59:18,20,,2021-03-13 22:59:18,9,112
2021-03-14 22:59:18,20,,2021-03-14 22:59:18,9,113
2021-03-15 22:59:18,20,,2021-03-15 22:59:18,9,114
2021-03-16 22:59:18,20,,2021-03-16 22:59:18,9,115
2021-03-17 22:59:18,20,,2021-03-17 22:59:18,9,116
2021-03-18 22:59:18,20,,2021-03-18 22:59:18,9,117
2021-03-19 22:59:18,40,,2021-03-19 22:59:18,10,118
2021-03-20 22:59:18,40,,2021-03-20 22:59:18,10,119
2021-03-21 22:59:18,40,,2021-03-21 22:59:18,10,120
2021-03-22 22:59:18,40,,2021-03-22 22:59:18,10,121
2021-03-23 22:59:18,40,,2021-03-23 22:59:18,10,122
2021-03-24 22:59:18,40,,2021-03-24 22:59:18,11,123
2021-03-25 22:59:18,40,,2021-03-25 22:59:18,11,124
2021-03-26 22:59:18,40,,2021-03-26 22:59:18,11,125
2021-03-27 22:59:18,40,,2021-03-27 22:59:18,11,126
2021-03-28 22:59:18,40,,2021-03-28 22:59:18,11,127
2021-03-29 22:59:18,40,,2021-03-29 22:59:18,12,128
2021-03-30 22:59:18,40,,2021-03-30 22:59:18,12,129
2021-03-31 22:59:18,40,,2021-03-31 22:59:18,12,130
2021-04-01 22:59:18,40,,2021-04-01 22:59:18,12,131
2021-04-02 22:59:18,20,,2021-04-02 22:59:18,1,132
2021-04-02 22:59:18,40,,2021-04-02 22:59:18,12,133
2021-04-03 22:59:18,20,,2021-04-03 22:59:18,1,134
2021-04-03 22:59:18,40,,2021-04-03 22:59:18,12,135
2021-04-04 22:59:18,20,,2021-04-04 22:59:18,1,136
2021-04-04 22:59:18,40,,2021-04-04 22:59:18,12,137
2021-04-05 22:59:18,20,,2021-04-05 22:59:18,1,138
2021-04-05 22:59:18,40,,2021-04-05 22:59:18,12,139
2021-04-06 22:59:18,20,,2021-04-06 22:59:18,1,140
2021-04-06 22:59:18,40,,2021-04-06 22:59:18,12,141
2021-04-07 22:59:18,20,,2021-04-07 22:59:18,1,142
2021-04-08 22:59:18,20,,2021-04-08 22:59:18,1,143
2021-04-09 22:59:18,20,,2021-04-09 22:59:18,1,144
2021-04-10 22:59:18,20,,2021-04-10 22:59:18,1,145
2021-04-11 22:59:18,20,,2021-04-11 22:59:18,1,146
2021-04-12 22:59:18,20,,2021-04-12 22:59:18,1,147
2021-04-13 22:59:18,20,,2021-04-13 22:59:18,1,148
2021-04-14 22:59:18,20,,2021-04-14 22:59:18,1,149
2021-04-15 22:59:18,20,,2021-04-15 22:59:18,1,150
2021-04-16 22:59:18,20,,2021-04-16 22:59:18,1,151
2021-04-17 22:59:18,20,,2021-04-17 22:59:18,1,152
2021-04-18 22:59:18,20,,2021-04-18 22:59:18,1,153
2021-04-19 22:59:18,20,,2021-04-19 22:59:18,1,154
2021-05-03 22:59:18,20,,2021-05-03 22:59:18,1,155
2021-05-04 22:59:18,20,,2021-05-04 22:59:18,1,156
2021-05-05 22:59:18,20,,2021-05-05 22:59:18,1,157
2021-05-06 22:59:18,20,,2021-05-06 22:59:18,1,158
2021-05-07 22:59:18,20,,2021-05-07 22:59:18,1,159
2021-05-08 22:59:18,20,,2021-05-08 22:59:18,1,160
2021-05-09 22:59:18,20,,2021-05-09 22:59:18,1,161
2021-05-14 22:59:18,20,,2021-05-14 22:59:18,3,162
2021-05-15 22:59:18,20,,2021-05-15 22:59:18,3,163
2021-05-16 22:59:18,20,,2021-05-16 22:59:18,3,164
2021-05-17 22:59:18,20,,2021-05-17 22:59:18,3,165
2021-05-18 22:59:18,20,,2021-05-18 22:59:18,2,166
2021-05-18 22:59:18,20,,2021-05-18 22:59:18,3,167
2021-05-19 22:59:18,20,,2021-05-19 22:59:18,2,168
2021-05-19 22:59:18,20,,2021-05-19 22:59:18,3,169
2021-05-20 22:59:18,20,,2021-05-20 22:59:18,2,170
2021-05-20 22:59:18,20,,2021-05-20 22:59:18,3,171
2021-05-21 22:59:18,20,,2021-05-21 22:59:18,2,172
2021-05-21 22:59:18,20,,2021-05-21 22:59:18,3,173
2021-05-22 22:59:18,20,,2021-05-22 22:59:18,2,174
2021-05-22 22:59:18,40,,2021-05-22 22:59:18,16,175
2021-05-23 22:59:18,20,,2021-05-23 22:59:18,2,176
2021-05-23 22:59:18,40,,2021-05-23 22:59:18,16,177
2021-05-24 22:59:18,20,,2021-05-24 22:59:18,2,178
2021-05-24 22:59:18,40,,2021-05-24 22:59:18,16,179
2021-05-25 22:59:18,20,,2021-05-25 22:59:18,2,180
2021-05-25 22:59:18,40,,2021-05-25 22:59:18,16,181
2021-05-26 22:59:18,20,,2021-05-26 22:59:18,2,182
2021-05-26 22:59:18,40,,2021-05-26 22:59:18,16,183
2021-05-27 22:59:18,20,,2021-05-27 22:59:18,2,184
2021-05-27 22:59:18,40,,2021-05-27 22:59:18,17,185
2021-05-27 22:59:18,40,,2021-05-27 22:59:18,15,186
2021-05-28 22:59:18,20,,2021-05-28 22:59:18,2,187
2021-05-28 22:59:18,40,,2021-05-28 22:59:18,15,188
2021-05-28 22:59:18,40,,2021-05-28 22:59:18,17,189
2021-05-29 22:59:18,20,,2021-05-29 22:59:18,2,190
2021-05-29 22:59:18,40,,2021-05-29 22:59:18,15,191
2021-05-29 22:59:18,40,,2021-05-29 22:59:18,17,192
2021-05-29 22:59:18,40,,2021-05-29 22:59:18,29,193
2021-05-30 22:59:18,20,,2021-05-30 22:59:18,2,194
2021-05-30 22:59:18,40,,2021-05-30 22:59:18,15,195
2021-05-30 22:59:18,40,,2021-05-30 22:59:18,17,196
2021-05-30 22:59:18,40,,2021-05-30 22:59:18,30,197
2021-05-31 22:59:18,20,,2021-05-31 22:59:18,2,198
2021-05-31 22:59:18,40,,2021-05-31 22:59:18,15,199
2021-05-31 22:59:18,40,,2021-05-31 22:59:18,17,200
2021-05-31 22:59:18,40,,2021-05-31 22:59:18,31,201
2021-06-01 22:59:18,20,,2021-06-01 22:59:18,2,202
2021-06-01 22:59:18,40,,2021-06-01 22:59:18,15,203
2021-06-01 22:59:18,40,,2021-06-01 22:59:18,17,204
2021-06-01 22:59:18,40,,2021-06-01 22:59:18,32,205
2021-06-01 22:59:18,20,,2021-06-01 22:59:18,1,206
2021-06-02 22:59:18,20,,2021-06-02 22:59:18,1,207
2021-06-02 22:59:18,20,,2021-06-02 22:59:18,2,208
2021-06-02 22:59:18,40,,2021-06-02 22:59:18,15,209
2021-06-02 22:59:18,40,,2021-06-02 22:59:18,17,210
2021-06-02 22:59:18,40,,2021-06-02 22:59:18,33,211
2021-06-02 22:59:18,20,,2021-06-02 22:59:18,5,212
2021-06-03 22:59:18,20,,2021-06-03 22:59:18,1,213
2021-06-03 22:59:18,20,,2021-06-03 22:59:18,2,214
2021-06-03 22:59:18,20,,2021-06-03 22:59:18,5,215
2021-06-03 22:59:18,40,,2021-06-03 22:59:18,15,216
2021-06-03 22:59:18,40,,2021-06-03 22:59:18,17,217
2021-06-03 22:59:18,40,,2021-06-03 22:59:18,34,218
2021-06-04 22:59:18,20,,2021-06-04 22:59:18,1,219
2021-06-04 22:59:18,20,,2021-06-04 22:59:18,5,220
2021-06-04 22:59:18,40,,2021-06-04 22:59:18,15,221
2021-06-04 22:59:18,40,,2021-06-04 22:59:18,17,222
2021-06-04 22:59:18,40,,2021-06-04 22:59:18,35,223
2021-06-05 22:59:18,20,,2021-06-05 22:59:18,1,224
2021-06-05 22:59:18,20,,2021-06-05 22:59:18,5,225
2021-06-05 22:59:18,40,,2021-06-05 22:59:18,15,226
2021-06-05 22:59:18,40,,2021-06-05 22:59:18,18,227
2021-06-05 22:59:18,40,,2021-06-05 22:59:18,36,228
2021-06-06 22:59:18,20,,2021-06-06 22:59:18,1,229
2021-06-06 22:59:18,20,,2021-06-06 22:59:18,5,230
2021-06-06 22:59:18,40,,2021-06-06 22:59:18,15,231
2021-06-06 22:59:18,40,,2021-06-06 22:59:18,18,232
2021-06-06 22:59:18,80,,2021-06-06 22:59:18,37,233
2021-06-07 22:59:18,20,,2021-06-07 22:59:18,1,234
2021-06-07 22:59:18,20,,2021-06-07 22:59:18,5,235
2021-06-07 22:59:18,40,,2021-06-07 22:59:18,15,236
2021-06-07 22:59:18,40,,2021-06-07 22:59:18,19,237
2021-06-07 22:59:18,80,,2021-06-07 22:59:18,38,238
2021-06-08 22:59:18,20,,2021-06-08 22:59:18,1,239
2021-06-08 22:59:18,20,,2021-06-08 22:59:18,5,240
2021-06-08 22:59:18,40,,2021-06-08 22:59:18,15,241
2021-06-08 22:59:18,40,,2021-06-08 22:59:18,19,242
2021-06-08 22:59:18,80,,2021-06-08 22:59:18,39,243
2021-06-09 22:59:18,20,,2021-06-09 22:59:18,1,244
2021-06-09 22:59:18,20,,2021-06-09 22:59:18,5,245
2021-06-09 22:59:18,40,,2021-06-09 22:59:18,15,246
2021-06-09 22:59:18,40,,2021-06-09 22:59:18,20,247
2021-06-09 22:59:18,80,,2021-06-09 22:59:18,40,248
2021-06-10 22:59:18,20,,2021-06-10 22:59:18,1,249
2021-06-10 22:59:18,20,,2021-06-10 22:59:18,5,250
2021-06-10 22:59:18,40,,2021-06-10 22:59:18,15,251
2021-06-10 22:59:18,40,,2021-06-10 22:59:18,20,252
2021-06-10 22:59:18,80,,2021-06-10 22:59:18,41,253
2021-06-11 22:59:18,20,,2021-06-11 22:59:18,1,254
2021-06-11 22:59:18,20,,2021-06-11 22:59:18,5,255
2021-06-11 22:59:18,40,,2021-06-11 22:59:18,15,256
2021-06-11 22:59:18,40,,2021-06-11 22:59:18,21,257
2021-06-11 22:59:18,80,,2021-06-11 22:59:18,42,258
2021-06-12 22:59:18,20,,2021-06-12 22:59:18,1,259
2021-06-12 22:59:18,20,,2021-06-12 22:59:18,5,260
2021-06-12 22:59:18,40,,2021-06-12 22:59:18,16,261
2021-06-12 22:59:18,40,,2021-06-12 22:59:18,22,262
2021-06-12 22:59:18,80,,2021-06-12 22:59:18,43,263
2021-06-13 22:59:18,20,,2021-06-13 22:59:18,1,264
2021-06-13 22:59:18,20,,2021-06-13 22:59:18,5,265
2021-06-13 22:59:18,40,,2021-06-13 22:59:18,16,266
2021-06-13 22:59:18,40,,2021-06-13 22:59:18,22,267
2021-06-13 22:59:18,80,,2021-06-13 22:59:18,44,268
2021-06-14 22:59:18,20,,2021-06-14 22:59:18,5,269
2021-06-14 22:59:18,40,,2021-06-14 22:59:18,16,270
2021-06-14 22:59:18,40,,2021-06-14 22:59:18,22,271
2021-06-14 22:59:18,80,,2021-06-14 22:59:18,45,272
2021-06-15 22:59:18,20,,2021-06-15 22:59:18,5,273
2021-06-15 22:59:18,40,,2021-06-15 22:59:18,16,274
2021-06-15 22:59:18,40,,2021-06-15 22:59:18,23,275
2021-06-15 22:59:18,80,,2021-06-15 22:59:18,46,276
2021-06-16 22:59:18,20,,2021-06-16 22:59:18,5,277
2021-06-16 22:59:18,40,,2021-06-16 22:59:18,16,278
2021-06-16 22:59:18,40,,2021-06-16 22:59:18,23,279
2021-06-16 22:59:18,80,,2021-06-16 22:59:18,47,280
2021-06-17 22:59:18,20,,2021-06-17 22:59:18,5,281
2021-06-17 22:59:18,40,,2021-06-17 22:59:18,16,282
2021-06-17 22:59:18,40,,2021-06-17 22:59:18,23,283
2021-06-17 22:59:18,80,,2021-06-17 22:59:18,48,284
2021-06-18 22:59:18,20,,2021-06-18 22:59:18,6,285
2021-06-18 22:59:18,40,,2021-06-18 22:59:18,16,286
2021-06-18 22:59:18,40,,2021-06-18 22:59:18,23,287
2021-06-18 22:59:18,80,,2021-06-18 22:59:18,49,288
2021-06-19 22:59:18,20,,2021-06-19 22:59:18,6,289
2021-06-19 22:59:18,40,,2021-06-19 22:59:18,16,290
2021-06-19 22:59:18,40,,2021-06-19 22:59:18,23,291
2021-06-19 22:59:18,80,,2021-06-19 22:59:18,50,292
2021-06-20 22:59:18,20,,2021-06-20 22:59:18,6,293
2021-06-20 22:59:18,40,,2021-06-20 22:59:18,16,294
2021-06-20 22:59:18,40,,2021-06-20 22:59:18,23,295
2021-06-20 22:59:18,80,,2021-06-20 22:59:18,51,296
2021-06-21 22:59:18,20,,2021-06-21 22:59:18,6,297
2021-06-21 22:59:18,40,,2021-06-21 22:59:18,16,298
2021-06-21 22:59:18,40,,2021-06-21 22:59:18,23,299
2021-06-21 22:59:18,80,,2021-06-21 22:59:18,52,300
2021-06-22 22:59:18,20,,2021-06-22 22:59:18,3,301
2021-06-22 22:59:18,20,,2021-06-22 22:59:18,6,302
2021-06-22 22:59:18,40,,2021-06-22 22:59:18,23,303
2021-06-22 22:59:18,80,,2021-06-22 22:59:18,53,304
2021-06-23 22:59:18,20,,2021-06-23 22:59:18,3,305
2021-06-23 22:59:18,20,,2021-06-23 22:59:18,6,306
2021-06-23 22:59:18,40,,2021-06-23 22:59:18,23,307
2021-06-23 22:59:18,80,,2021-06-23 22:59:18,54,308
2021-06-24 22:59:18,20,,2021-06-24 22:59:18,3,309
2021-06-24 22:59:18,40,,2021-06-24 22:59:18,24,310
2021-06-24 22:59:18,80,,2021-06-24 22:59:18,55,311
2021-06-25 22:59:18,20,,2021-06-25 22:59:18,3,312
2021-06-25 22:59:18,40,,2021-06-25 22:59:18,25,313
2021-06-25 22:59:18,80,,2021-06-25 22:59:18,56,314
2021-06-26 22:59:18,20,,2021-06-26 22:59:18,3,315
2021-06-26 22:59:18,40,,2021-06-26 22:59:18,26,316
2021-06-27 22:59:18,20,,2021-06-27 22:59:18,3,317
2021-06-27 22:59:18,40,,2021-06-27 22:59:18,27,318
2021-06-28 22:59:18,20,,2021-06-28 22:59:18,3,319
2021-06-28 22:59:18,40,,2021-06-28 22:59:18,28,320