﻿detail,is_hidden,name,redeem_points,remain_amount,reward_type_id,image
人造革 托特包，可收納書本、文件以及其他雜物。 ,f,人造革 托特包 - 茶色,10,1,2,rewards1.png
Athena系列完美詮譯優雅簡約主義的精髓，低調地流露出現代女性的自然魅力。,f,Athena 高貴優雅 簡約百搭 手提包 托特包 (黑色),10,1,2,rewards2.png
全部以純手工製作,f,點點羊毛氈口金包,10,2,3,rewards3.png
ALEX 肩背包，有如望遠鏡般的圓筒外觀； 既讓她有較大容量，又低調地展現與眾不同。 ,f,ALEX 復古牛皮圓筒側肩包 黑色,10,5,2,rewards4.png
Our small vertical bag is ideal for festivals or city strolling. ,f,Emily - cross body bag - Basil Green color,10,10,2,rewards5.png
此款版型 35~37 尺寸者，建議拿【原尺寸】即可； 38~40 尺寸者，建議拿【小一碼】,f,小公主的奧塞鞋 _ 奶茶,10,10,9,rewards6.png
PolaroidGo 相機所捕捉到的，不論是一塊 情緒板、音樂視頻、還是照片牆上的一段甜蜜回憶， 都可能會成為您的下一項創造。 ,f,PolaroidGo 袖珍型即影即有相機 + 彩色雙包裝相紙套裝,10,10,10,rewards7.png
金屬：精細耐敏珠寶金屬，包18K白金/玫瑰金/黃金 寶石：天然鑽石 天然鑽石：約0.025ct*2 鑽石顏色：F-G 淨度VS 長：約41mm 重量：約8g 品牌選用寶石皆為天然寶石，請消費者注意並放心。,f,天然鑽石編織耳飾,10,10,4,rewards8.png
採用日本原裝進口100%有機棉料製作，舒適及有型的設計是我們的中心理念，同時我們相當重視衣服的透氣性及輕薄感．所有布料均是耐穿不易變形，有機棉料栽種在無毒環境，不添加化學物質與農藥．金屬副料如釦子、拉鍊等均為無鎳無重金屬無毒的安全材質。 ,f,西西里度假襯衫,10,10,1,rewards9.png
以源自極端環境的第二層保護，打造獻給敏感肌的進階精華，多些根基於復原的細緻明亮，少些暗沈不均與乾燥泛紅；了解更多擴大敏感舒適圈的可能，揮別非必要的刺激與成分。,f,年度新品 -極境雙藻復原精華 敏感肌高效 改善泛紅,10,10,7,rewards10.png
菱錳礦（紅紋石）純銀編墜/搭配純銀項鍊 ,f,菱錳礦(紅紋石)-純銀編墜/搭配純銀項鍊,10,10,4,rewards11.png
Acton II是馬歇爾陣容中比較小的揚聲器.這款動態緊湊型揚聲器具有三個專用D類放大器，可為其雙高音揚聲器和低音炮提供動力，實現無與倫比的音質。,f,馬歇爾 Acton II 藍牙喇叭,10,10,10,rewards12.png
Roommi好簡單三明治機讓你3分鐘美味料理輕鬆上桌！ 兼具熱壓三明治機、鬆餅機的功能，輕輕一合，早餐三明治、熱狗、肉片、鬆餅就可完成， 讓媽媽與小資族的你不用鍋子與瓦斯爐也能享受料理DIY的樂趣。,f,好簡單三明治機 珍珠白 三明治機 熱壓吐司機,10,10,10,rewards13.png
シンプルな丸いピアスです。 正面につくようにデザインしました。 シンプルですがつけてみるととても個性的でおしゃれになります,f,Maru(s) Earrings,10,10,4,rewards14.png
採用胺基酸結合植物的力量，自受損髮的內外部同時密集呵護。豐富泡沫好搓洗、蓬鬆有感不扁塌！溫和清潔附著於頭皮與秀髮上的髒污與老廢角質，森林芬多精香氣潔淨舒爽，特別適合油性髮質、易長痘痘的頭皮,f,日本FeatherAqua-植物性淨化洗潤髮組,10,10,7,rewards15.png
2020 Golden Pin Design Award 顛覆一般運動化妝造成毛孔堵塞、妝感厚重、悶熱的印象。結合更輕盈、細緻的微膠囊技術包覆多階色粉，依照膚色不同，釋放出最適合皮膚的顏色，創造自然亮澤且超薄零粉感，讓肌膚每時每刻都在呼吸。 ,f,spococo 智慧校正粉底(SPF20),10,10,8,rewards16.png
熱銷 18 萬瓶，綠藤最受歡迎的明星商品之一！ 以巴西頂級綠蜂膠取代強效藥性成分，打造頭皮調理的天然解答，多些頭皮呼吸的輕盈蓬鬆，少些油癢不適。 組合內含：頭皮淨化洗髮精 250ml X2 ,f,頭皮淨化舒壓組 (頭皮淨化洗髮精 x2),10,10,7,rewards17.png
以最新納米技術配製，質地輕盈柔滑使肌膚瞬間吸收，極速修復膚色暗啞及不均等問題，減少黑色素及細紋形成。再配合獨特的遮瑕功能，營造出似有還無的裸妝效果，令肌膚回復應有的健康光澤。其保濕成分含高濃度保濕因子，能激活細胞再生，讓讓肌膚內在水潤飽滿。 ,f,完美素肌防曬精華 (SPF30) - 30ml,10,10,7,rewards18.png
零毒素，不含公認易阻塞成分 日間保養一瓶搞定 清爽不油 純氧化鋅物理性防曬，敏弱痘肌福音 真正嚴謹裸天然成分，更勝坊間的「標榜天然」,f,膩理日霜 SPF 30 保濕乳液 50ml,10,10,7,rewards19.png
LSY林三益 一組完備基本組(女爵.灰金) ,f,LSY林三益 一組完備基本組(女爵.灰金),10,10,8,rewards20.png